<?xml version="1.0" encoding="UTF-8" standalone="no"?>
<svg
   xmlns:dc="http://purl.org/dc/elements/1.1/"
   xmlns:cc="http://creativecommons.org/ns#"
   xmlns:rdf="http://www.w3.org/1999/02/22-rdf-syntax-ns#"
   xmlns:svg="http://www.w3.org/2000/svg"
   xmlns="http://www.w3.org/2000/svg"
   xmlns:sodipodi="http://sodipodi.sourceforge.net/DTD/sodipodi-0.dtd"
   xmlns:inkscape="http://www.inkscape.org/namespaces/inkscape"
   inkscape:export-ydpi="96"
   inkscape:export-xdpi="96"
   inkscape:export-filename="C:\Users\ifa\backend\placeholder\sitzung_dummy.png"
   sodipodi:docname="sitzung_dummy.svg"
   inkscape:version="1.0 (4035a4fb49, 2020-05-01)"
   id="svg3213"
   version="1.1"
   viewBox="0 0 50.270832 50.270834"
   height="190"
   width="190">
  <defs
     id="defs3207" />
  <sodipodi:namedview
     inkscape:window-maximized="1"
     inkscape:window-y="-8"
     inkscape:window-x="-8"
     inkscape:window-height="837"
     inkscape:window-width="1600"
     inkscape:snap-global="false"
     showgrid="false"
     inkscape:document-rotation="0"
     inkscape:current-layer="layer1"
     inkscape:document-units="mm"
     inkscape:cy="136.93248"
     inkscape:cx="223.55706"
     inkscape:zoom="1.979899"
     inkscape:pageshadow="2"
     inkscape:pageopacity="0.0"
     borderopacity="1.0"
     bordercolor="#666666"
     pagecolor="#ffffff"
     id="base"
     units="px" />
  <metadata
     id="metadata3210">
    <rdf:RDF>
      <cc:Work
         rdf:about="">
        <dc:format>image/svg+xml</dc:format>
        <dc:type
           rdf:resource="http://purl.org/dc/dcmitype/StillImage" />
        <dc:title></dc:title>
      </cc:Work>
    </rdf:RDF>
  </metadata>
  <g
     transform="translate(-25.969474,-167.42957)"
     id="layer1"
     inkscape:groupmode="layer"
     inkscape:label="Layer 1">
    <g
       id="g868"
       transform="matrix(0.3764308,0,0,0.3764308,16.193764,111.17269)"
       inkscape:export-xdpi="96"
       inkscape:export-ydpi="96">
      <path
         inkscape:export-ydpi="96"
         inkscape:export-xdpi="96"
         transform="scale(0.26458333)"
         d="m 352.44727,798.87891 c -0.19176,-0.0114 -0.3872,-0.0109 -0.58789,0.004 -20.65439,1.52867 -37.53711,24.8559 -37.53711,47.60938 v 29.01758 a 135.02252,64.389788 0 0 1 51.29687,-4.85352 135.02252,64.389788 0 0 1 0.13086,0 135.02252,64.389788 0 0 1 51.42969,4.85352 v -29.01758 c 0,-22.75348 -16.88305,-46.08052 -37.53711,-47.60938 -6.42256,-0.47539 -8.12352,12.91211 -13.89063,12.91211 -5.58687,0 -7.36026,-12.56292 -13.30468,-12.91601 z m 6.68554,81.69336 a 127.27305,55.053319 0 0 0 -1.81836,0.0469 127.27305,55.053319 0 0 1 1.81836,-0.0469 z m -4.40625,0.13281 a 127.27305,55.053319 0 0 0 -1.625,0.0664 127.27305,55.053319 0 0 1 1.625,-0.0664 z m -3.29687,0.14258 a 127.27305,55.053319 0 0 0 -1.47852,0.0762 127.27305,55.053319 0 0 1 1.47852,-0.0762 z m -3.28907,0.17968 a 127.27305,55.053319 0 0 0 -1.33007,0.084 127.27305,55.053319 0 0 1 1.33007,-0.084 z m -2.18554,0.14063 a 127.27305,55.053319 0 0 0 -2.35352,0.16992 127.27305,55.053319 0 0 1 2.35352,-0.16992 z m -5.39453,0.41992 a 127.27305,55.053319 0 0 0 -1.59961,0.14258 127.27305,55.053319 0 0 1 1.59961,-0.14258 z m -16.17774,1.90039 a 127.27305,55.053319 0 0 0 -2.02929,0.3086 127.27305,55.053319 0 0 1 2.02929,-0.3086 z m -4.06445,0.63672 a 127.27305,55.053319 0 0 0 -2.00195,0.33984 127.27305,55.053319 0 0 1 2.00195,-0.33984 z"
         style="fill:#38a47c;fill-opacity:1;stroke:#000000;stroke-width:0;stroke-linecap:round;stroke-linejoin:round"
         id="path2686-5" />
      <rect
         ry="7.6569963"
         y="192.69995"
         x="90.082886"
         height="17.493061"
         width="13.377046"
         id="rect2688-0"
         style="fill:#38a47c;fill-opacity:1;stroke:#000000;stroke-width:0;stroke-linecap:round;stroke-linejoin:round"
         inkscape:export-xdpi="96"
         inkscape:export-ydpi="96" />
      <path
         inkscape:export-ydpi="96"
         inkscape:export-xdpi="96"
         transform="scale(0.26458333)"
         d="m 501.3418,823.16016 c -5.9444,0.35304 -7.71784,12.91796 -13.30469,12.91796 -5.5869,0 -7.36028,-12.56289 -13.30469,-12.91601 v 0.002 c -0.19162,-0.0113 -0.38716,-0.0112 -0.58789,0.004 -20.65436,1.52855 -37.53711,24.85594 -37.53711,47.60937 v 9.45899 a 135.02252,64.389788 0 0 1 60.70313,40.32031 c 4.09012,-20.77851 20.16341,-39.54816 39.25195,-40.96094 0.37644,-0.0264 0.73251,0.004 1.08008,0.0606 -8.79889,-5.55806 -14.73438,-16.27009 -14.73438,-28.63281 v -9.30469 c 0,-2.75244 0.29899,-5.42009 0.85352,-7.9707 -6.16139,-5.99241 -13.70193,-9.98026 -21.83203,-10.58203 -0.20071,-0.0149 -0.39614,-0.0172 -0.58789,-0.006 z m -64.73438,66.66015 a 127.27305,55.053319 0 0 1 0.89453,0.26172 127.27305,55.053319 0 0 0 -0.89453,-0.26172 z m 0.89453,0.26172 a 127.27305,55.053319 0 0 1 0.89063,0.26563 127.27305,55.053319 0 0 0 -0.89063,-0.26563 z m 3.5293,1.08008 a 127.27305,55.053319 0 0 1 2.51758,0.82031 127.27305,55.053319 0 0 0 -2.51758,-0.82031 z m 4.39258,1.45703 a 127.27305,55.053319 0 0 1 2.40039,0.85547 127.27305,55.053319 0 0 0 -2.40039,-0.85547 z m 2.40039,0.85547 a 127.27305,55.053319 0 0 1 1.60742,0.5957 127.27305,55.053319 0 0 0 -1.60742,-0.5957 z m 3.25586,1.23047 a 127.27305,55.053319 0 0 1 0.79883,0.31445 127.27305,55.053319 0 0 0 -0.79883,-0.31445 z m 1.5918,0.63281 a 127.27305,55.053319 0 0 1 0.78515,0.32031 127.27305,55.053319 0 0 0 -0.78515,-0.32031 z m 0.78515,0.32031 a 127.27305,55.053319 0 0 1 0.78125,0.32422 127.27305,55.053319 0 0 0 -0.78125,-0.32422 z m 2.32227,0.98047 a 127.27305,55.053319 0 0 1 0.75976,0.33203 127.27305,55.053319 0 0 0 -0.75976,-0.33203 z m 1.56836,0.69141 a 127.27305,55.053319 0 0 1 0.69336,0.3125 127.27305,55.053319 0 0 0 -0.69336,-0.3125 z m 0.69336,0.3125 a 127.27305,55.053319 0 0 1 0.74023,0.33984 127.27305,55.053319 0 0 0 -0.74023,-0.33984 z m 0.74023,0.33984 a 127.27305,55.053319 0 0 1 0.73437,0.34375 127.27305,55.053319 0 0 0 -0.73437,-0.34375 z m 0.73437,0.34375 a 127.27305,55.053319 0 0 1 0.72852,0.34571 127.27305,55.053319 0 0 0 -0.72852,-0.34571 z m 0.72852,0.34571 a 127.27305,55.053319 0 0 1 1.43359,0.69921 127.27305,55.053319 0 0 0 -1.43359,-0.69921 z m 1.43359,0.69921 a 127.27305,55.053319 0 0 1 0.70704,0.35352 127.27305,55.053319 0 0 0 -0.70704,-0.35352 z m 0.70704,0.35352 a 127.27305,55.053319 0 0 1 1.39257,0.71484 127.27305,55.053319 0 0 0 -1.39257,-0.71484 z m 2.0957,1.08594 a 127.27305,55.053319 0 0 1 0.66211,0.35547 127.27305,55.053319 0 0 0 -0.66211,-0.35547 z m 0.66211,0.35547 a 127.27305,55.053319 0 0 1 0.65625,0.35742 127.27305,55.053319 0 0 0 -0.65625,-0.35742 z m 0.6875,0.37304 a 127.27305,55.053319 0 0 1 0.5918,0.33008 127.27305,55.053319 0 0 0 -0.5918,-0.33008 z m 1.30469,0.73242 a 127.27305,55.053319 0 0 1 0.62304,0.35743 127.27305,55.053319 0 0 0 -0.62304,-0.35743 z m 0.67773,0.38868 a 127.27305,55.053319 0 0 1 0.61523,0.36132 127.27305,55.053319 0 0 0 -0.61523,-0.36132 z m 0.61523,0.36132 a 127.27305,55.053319 0 0 1 0.63477,0.37891 127.27305,55.053319 0 0 0 -0.63477,-0.37891 z m 0.63477,0.37891 a 127.27305,55.053319 0 0 1 1.85938,1.14844 127.27305,55.053319 0 0 0 -1.85938,-1.14844 z m 1.85938,1.14844 a 127.27305,55.053319 0 0 1 0.60546,0.38672 127.27305,55.053319 0 0 0 -0.60546,-0.38672 z m 0.60546,0.38672 a 127.27305,55.053319 0 0 1 1.18555,0.78125 127.27305,55.053319 0 0 0 -1.18555,-0.78125 z m 1.18555,0.78125 a 127.27305,55.053319 0 0 1 0.58203,0.39453 127.27305,55.053319 0 0 0 -0.58203,-0.39453 z m 0.58203,0.39453 a 127.27305,55.053319 0 0 1 0.57422,0.39648 127.27305,55.053319 0 0 0 -0.57422,-0.39648 z m 0.57422,0.39648 a 127.27305,55.053319 0 0 1 0.56641,0.39844 127.27305,55.053319 0 0 0 -0.56641,-0.39844 z m 0.56641,0.39844 a 127.27305,55.053319 0 0 1 0.55859,0.40039 127.27305,55.053319 0 0 0 -0.55859,-0.40039 z m 0.55859,0.40039 a 127.27305,55.053319 0 0 1 0.55078,0.40234 127.27305,55.053319 0 0 0 -0.55078,-0.40234 z m 0.55078,0.40234 a 127.27305,55.053319 0 0 1 0.54297,0.4043 127.27305,55.053319 0 0 0 -0.54297,-0.4043 z m 0.54297,0.4043 a 127.27305,55.053319 0 0 1 0.53516,0.40625 127.27305,55.053319 0 0 0 -0.53516,-0.40625 z m 0.53516,0.40625 a 127.27305,55.053319 0 0 1 0.52539,0.4082 127.27305,55.053319 0 0 0 -0.52539,-0.4082 z m 0.52539,0.4082 a 127.27305,55.053319 0 0 1 0.51953,0.41016 127.27305,55.053319 0 0 0 -0.51953,-0.41016 z m 0.51953,0.41016 a 127.27305,55.053319 0 0 1 1.01367,0.82617 127.27305,55.053319 0 0 0 -1.01367,-0.82617 z m 2.04297,1.70117 a 127.27305,55.053319 0 0 1 0.42773,0.37696 127.27305,55.053319 0 0 0 -0.42773,-0.37696 z m 0.42773,0.37696 a 127.27305,55.053319 0 0 1 0.4375,0.39062 127.27305,55.053319 0 0 0 -0.4375,-0.39062 z m 0.51367,0.45898 a 127.27305,55.053319 0 0 1 0.41797,0.38477 127.27305,55.053319 0 0 0 -0.41797,-0.38477 z m 0.41797,0.38477 a 127.27305,55.053319 0 0 1 0.45313,0.42382 127.27305,55.053319 0 0 0 -0.45313,-0.42382 z m 0.45313,0.42382 a 127.27305,55.053319 0 0 1 0.35351,0.33985 127.27305,55.053319 0 0 0 -0.35351,-0.33985 z m 0.92383,0.89844 a 127.27305,55.053319 0 0 1 0.38476,0.38477 127.27305,55.053319 0 0 0 -0.38476,-0.38477 z m 0.38476,0.38477 a 127.27305,55.053319 0 0 1 0.41992,0.43164 127.27305,55.053319 0 0 0 -0.41992,-0.43164 z m 0.41992,0.43164 a 127.27305,55.053319 0 0 1 0.36524,0.38281 127.27305,55.053319 0 0 0 -0.36524,-0.38281 z m 0.8711,0.92773 a 127.27305,55.053319 0 0 1 0.33593,0.37305 127.27305,55.053319 0 0 0 -0.33593,-0.37305 z m 0.33593,0.37305 a 127.27305,55.053319 0 0 1 0.38672,0.4375 127.27305,55.053319 0 0 0 -0.38672,-0.4375 z m 0.38672,0.4375 a 127.27305,55.053319 0 0 1 0.35938,0.41797 127.27305,55.053319 0 0 0 -0.35938,-0.41797 z m 0.39258,0.45703 a 127.27305,55.053319 0 0 1 0.35156,0.41992 127.27305,55.053319 0 0 0 -0.35156,-0.41992 z m 0.35156,0.41992 a 127.27305,55.053319 0 0 1 0.35938,0.44141 127.27305,55.053319 0 0 0 -0.35938,-0.44141 z m 0.75391,0.93945 a 127.27305,55.053319 0 0 1 0.27539,0.35547 127.27305,55.053319 0 0 0 -0.27539,-0.35547 z m 0.66602,0.87891 a 127.27305,55.053319 0 0 1 0.29101,0.39844 127.27305,55.053319 0 0 0 -0.29101,-0.39844 z m 0.29101,0.39844 a 127.27305,55.053319 0 0 1 0.31641,0.44726 127.27305,55.053319 0 0 0 -0.31641,-0.44726 z m 0.31641,0.44726 a 127.27305,55.053319 0 0 1 0.29687,0.4336 127.27305,55.053319 0 0 0 -0.29687,-0.4336 z m 0.32031,0.46485 a 127.27305,55.053319 0 0 1 0.28516,0.43359 127.27305,55.053319 0 0 0 -0.28516,-0.43359 z m 0.28516,0.43359 a 127.27305,55.053319 0 0 1 0.26953,0.41797 127.27305,55.053319 0 0 0 -0.26953,-0.41797 z m 0.31054,0.48242 a 127.27305,55.053319 0 0 1 0.25977,0.41993 127.27305,55.053319 0 0 0 -0.25977,-0.41993 z m 0.83008,1.38672 a 127.27305,55.053319 0 0 1 0.21875,0.39258 127.27305,55.053319 0 0 0 -0.21875,-0.39258 z m 0.21875,0.39258 a 127.27305,55.053319 0 0 1 0.20117,0.37305 127.27305,55.053319 0 0 0 -0.20117,-0.37305 z m 0.51563,0.97852 a 127.27305,55.053319 0 0 1 0.18164,0.36718 127.27305,55.053319 0 0 0 -0.18164,-0.36718 z m 0.20507,0.41406 a 127.27305,55.053319 0 0 1 0.16407,0.34375 127.27305,55.053319 0 0 0 -0.16407,-0.34375 z m 0.24024,0.50781 a 127.27305,55.053319 0 0 1 0.16015,0.35156 127.27305,55.053319 0 0 0 -0.16015,-0.35156 z m 0.19141,0.41797 a 127.27305,55.053319 0 0 1 0.13085,0.30273 127.27305,55.053319 0 0 0 -0.13085,-0.30273 z m 0.23046,0.53516 a 127.27305,55.053319 0 0 1 0.14454,0.35156 127.27305,55.053319 0 0 0 -0.14454,-0.35156 z m 0.14454,0.35156 a 127.27305,55.053319 0 0 1 0.1582,0.39648 127.27305,55.053319 0 0 0 -0.1582,-0.39648 z m 0.20703,0.52539 a 127.27305,55.053319 0 0 1 0.1289,0.3418 127.27305,55.053319 0 0 0 -0.1289,-0.3418 z m 0.32812,0.90234 a 127.27305,55.053319 0 0 1 0.10156,0.30664 127.27305,55.053319 0 0 0 -0.10156,-0.30664 z m 0.28711,0.89063 a 127.27305,55.053319 0 0 1 0.13477,0.45508 127.27305,55.053319 0 0 0 -0.13477,-0.45508 z m 0.13477,0.45508 a 127.27305,55.053319 0 0 1 0.11328,0.40625 127.27305,55.053319 0 0 0 -0.11328,-0.40625 z m 0.14453,0.52343 a 127.27305,55.053319 0 0 1 0.0976,0.39454 127.27305,55.053319 0 0 0 -0.0976,-0.39454 z m 0.5039,2.38282 a 127.27305,55.053319 0 0 1 0.041,0.25781 127.27305,55.053319 0 0 0 -0.041,-0.25781 z m 0.0625,0.41406 a 127.27305,55.053319 0 0 1 0.0527,0.39062 127.27305,55.053319 0 0 0 -0.0527,-0.39062 z m 0.0566,0.41797 a 127.27305,55.053319 0 0 1 0.0469,0.41015 127.27305,55.053319 0 0 0 -0.0469,-0.41015 z m 0.0566,0.49609 a 127.27305,55.053319 0 0 1 0.0293,0.29297 127.27305,55.053319 0 0 0 -0.0293,-0.29297 z m 0.0527,0.55078 a 127.27305,55.053319 0 0 1 0.0176,0.23633 127.27305,55.053319 0 0 0 -0.0176,-0.23633 z m 0.0566,0.9043 a 127.27305,55.053319 0 0 1 0.0117,0.30664 A 127.27305,55.053319 0 0 0 493,934.50586 Z m 0.0156,0.43555 a 127.27305,55.053319 0 0 1 0.004,0.25976 127.27305,55.053319 0 0 0 -0.004,-0.25976 z"
         style="fill:#38a47c;fill-opacity:1;stroke:#000000;stroke-width:0;stroke-linecap:round;stroke-linejoin:round"
         id="path2694-8" />
      <rect
         style="fill:#38a47c;fill-opacity:1;stroke:#000000;stroke-width:0;stroke-linecap:round;stroke-linejoin:round"
         id="rect2696-6"
         width="13.377046"
         height="17.493061"
         x="122.43764"
         y="199.12555"
         ry="7.6569963"
         inkscape:export-xdpi="96"
         inkscape:export-ydpi="96" />
      <path
         inkscape:export-ydpi="96"
         inkscape:export-xdpi="96"
         transform="scale(0.26458333)"
         d="m 257.62695,823.16211 c -5.94439,0.35304 -7.7178,12.91797 -13.30468,12.91797 -5.58689,0 -7.35832,-12.56293 -13.30274,-12.91602 -0.19177,-0.0113 -0.38914,-0.0112 -0.58984,0.004 -8.39517,0.62135 -16.16703,4.84434 -22.43555,11.16601 0.49686,2.39815 0.76758,4.89957 0.76758,7.47657 v 9.125 c 0,12.77816 -6.46538,23.76483 -15.86914,28.92578 v 1.57422 c 1.17895,-1.00732 2.50366,-1.60428 4.07031,-1.48828 17.93693,1.32772 33.42735,16.74502 40.18164,35.48828 A 135.02252,64.389788 0 0 1 295.75,879.98633 v -9.20899 c 0,-22.75347 -16.8811,-46.08051 -37.53516,-47.60937 -0.2007,-0.0149 -0.39613,-0.0172 -0.58789,-0.006 z M 295.75,889.57227 a 127.27305,55.053319 0 0 0 -55.67773,37.29101 c 0.4447,2.86467 0.68945,5.75437 0.68945,8.63672 v 5.40039 c 1.19864,-10e-4 2.34016,0.004 3.56055,0.004 28.49143,0 51.42773,0.94497 51.42773,-26.44141 z"
         style="fill:#38a47c;fill-opacity:1;stroke:#000000;stroke-width:0;stroke-linecap:round;stroke-linejoin:round"
         id="path2700-9" />
      <path
         id="rect2702-2"
         style="fill:#38a47c;fill-opacity:1;stroke:#000000;stroke-width:0;stroke-linecap:round;stroke-linejoin:round"
         d="m 64.643429,199.12555 c 3.705439,0 6.688529,3.41502 6.688529,7.657 v 2.17907 c 0,4.24197 -2.98309,7.65699 -6.688529,7.65699 -3.705439,0 -6.688521,-3.41502 -6.688521,-7.65699 v -2.17907 c 0,-4.24198 2.983082,-7.657 6.688521,-7.657 z"
         inkscape:export-xdpi="96"
         inkscape:export-ydpi="96" />
      <path
         inkscape:export-ydpi="96"
         inkscape:export-xdpi="96"
         transform="scale(0.26458333)"
         d="M 365.75,880.49805 A 127.27305,55.05332 0 0 0 238.47656,935.55078 127.27305,55.05332 0 0 0 365.75,990.60547 127.27305,55.05332 0 0 0 493.02344,935.55078 127.27305,55.05332 0 0 0 365.75,880.49805 Z m 47.29688,19.8125 38.50976,24.02929 -57.95898,31.67188 -38.50977,-24.0293 z"
         style="fill:#38a47c;fill-opacity:1;stroke:#000000;stroke-width:0;stroke-linecap:round;stroke-linejoin:round"
         id="path2650-8" />
      <path
         inkscape:export-ydpi="96"
         inkscape:export-xdpi="96"
         transform="scale(0.26458333)"
         d="m 412.49414,905.69141 -48.17578,26.32617 29.83203,18.61328 48.17578,-26.32617 z m -7.28906,9.32031 20.71094,12.92187 -3.07422,1.67969 -20.71094,-12.92187 z m -8.19531,4.47851 20.70898,12.92383 -3.07227,1.67969 -20.71093,-12.92383 z m -8.19727,4.48047 20.71094,12.92188 -3.07422,1.67969 -20.71094,-12.92383 z"
         style="fill:#38a47c;fill-opacity:1;stroke:#000000;stroke-width:0;stroke-linecap:round;stroke-linejoin:round"
         id="rect3804-2" />
      <path
         inkscape:export-ydpi="96"
         inkscape:export-xdpi="96"
         transform="scale(0.26458333)"
         d="m 285.10742,632.80469 a 61.524603,44.642855 0 0 0 -61.52539,44.64258 61.524603,44.642855 0 0 0 61.52539,44.64257 61.524603,44.642855 0 0 0 61.52539,-44.64257 61.524603,44.642855 0 0 0 -61.52539,-44.64258 z M 254.03516,653.875 H 317.25 c 1.68179,0 3.03516,1.35338 3.03516,3.03516 0,1.68177 -1.35337,3.03711 -3.03516,3.03711 h -63.21484 c -1.68179,0 -3.03516,-1.35534 -3.03516,-3.03711 0,-1.68178 1.35337,-3.03516 3.03516,-3.03516 z M 243.5,670.125 h 84.28516 c 1.68178,0 3.03711,1.3553 3.03711,3.03711 0,1.68178 -1.35533,3.03516 -3.03711,3.03516 H 243.5 c -1.68178,0 -3.03516,-1.35338 -3.03516,-3.03516 0,-1.68181 1.35338,-3.03711 3.03516,-3.03711 z m 11.78516,16.25 H 316 c 1.68178,0 3.03516,1.35533 3.03516,3.03711 0,1.68178 -1.35338,3.03516 -3.03516,3.03516 h -60.71484 c -1.68179,0 -3.03516,-1.35338 -3.03516,-3.03516 0,-1.68178 1.35337,-3.03711 3.03516,-3.03711 z"
         style="fill:#38a47c;fill-opacity:1;stroke:#000000;stroke-width:0;stroke-linecap:round;stroke-linejoin:round"
         id="path3836-4" />
      <path
         inkscape:export-ydpi="96"
         inkscape:export-xdpi="96"
         transform="scale(0.26458333)"
         d="m 442.42969,652.44727 a 55.704732,39.464281 0 0 0 -55.70508,39.46484 55.704732,39.464281 0 0 0 55.70508,39.46289 55.704732,39.464281 0 0 0 55.70312,-39.46289 55.704732,39.464281 0 0 0 -55.70312,-39.46484 z m -32.14453,26.78515 H 473.5 c 1.68178,0 3.03516,1.35334 3.03516,3.03516 0,1.68177 -1.35338,3.03711 -3.03516,3.03711 h -63.21484 c -1.68178,0 -3.03516,-1.35534 -3.03516,-3.03711 0,-1.68182 1.35338,-3.03516 3.03516,-3.03516 z m 0,18.92969 H 473.5 c 1.68178,0 3.03516,1.35338 3.03516,3.03516 0,1.68177 -1.35338,3.03515 -3.03516,3.03515 h -63.21484 c -1.68178,0 -3.03516,-1.35338 -3.03516,-3.03515 0,-1.68178 1.35338,-3.03516 3.03516,-3.03516 z"
         style="fill:#38a47c;fill-opacity:1;stroke:#000000;stroke-width:0;stroke-linecap:round;stroke-linejoin:round"
         id="ellipse3838-2" />
      <path
         sodipodi:type="star"
         style="fill:#38a47c;fill-opacity:1;stroke:#000000;stroke-width:0;stroke-linecap:round;stroke-linejoin:round"
         id="path3840-6"
         sodipodi:sides="3"
         sodipodi:cx="55.751488"
         sodipodi:cy="61.799103"
         sodipodi:r1="9.6458015"
         sodipodi:r2="4.8229008"
         sodipodi:arg1="1.6099919"
         sodipodi:arg2="2.6571895"
         inkscape:flatsided="true"
         inkscape:rounded="-3.46945e-18"
         inkscape:randomized="0"
         inkscape:transform-center-x="-0.32025546"
         inkscape:transform-center-y="0.47666265"
         transform="matrix(0.43653776,0.2538859,-0.56753022,0.69470355,81.297733,133.58214)"
         d="m 55.373512,71.437496 -7.78013,-14.784927 16.694187,0.654674 z"
         inkscape:export-xdpi="96"
         inkscape:export-ydpi="96" />
      <path
         transform="matrix(-0.28667087,0.29685535,0.50583876,0.59847284,72.339763,134.51087)"
         inkscape:transform-center-y="0.077140488"
         inkscape:transform-center-x="-0.13231137"
         inkscape:randomized="0"
         inkscape:rounded="-3.46945e-18"
         inkscape:flatsided="true"
         sodipodi:arg2="2.6571895"
         sodipodi:arg1="1.6099919"
         sodipodi:r2="4.8229008"
         sodipodi:r1="9.6458015"
         sodipodi:cy="61.799103"
         sodipodi:cx="55.751488"
         sodipodi:sides="3"
         id="path3842-5"
         style="fill:#38a47c;fill-opacity:1;stroke:#000000;stroke-width:0;stroke-linecap:round;stroke-linejoin:round"
         sodipodi:type="star"
         d="m 55.373512,71.437496 -7.78013,-14.784927 16.694187,0.654674 z"
         inkscape:export-xdpi="96"
         inkscape:export-ydpi="96" />
      <path
         sodipodi:type="star"
         style="fill:#38a47c;fill-opacity:1;stroke:#000000;stroke-width:0;stroke-linecap:round;stroke-linejoin:round"
         id="path3844-7"
         sodipodi:sides="3"
         sodipodi:cx="55.751488"
         sodipodi:cy="61.799103"
         sodipodi:r1="9.6458015"
         sodipodi:r2="4.8229008"
         sodipodi:arg1="1.6099919"
         sodipodi:arg2="2.6571895"
         inkscape:flatsided="true"
         inkscape:rounded="-3.46945e-18"
         inkscape:randomized="0"
         inkscape:transform-center-x="1.2883916"
         inkscape:transform-center-y="0.80998958"
         transform="matrix(-0.65629299,0.14866423,0.53964942,0.64316241,125.96623,144.2127)"
         d="m 55.373512,71.437496 -7.78013,-14.784927 16.694187,0.654674 z"
         inkscape:export-xdpi="96"
         inkscape:export-ydpi="96" />
      <path
         sodipodi:nodetypes="asssssasa"
         d="m 44.147998,233.86065 c -5.464806,0.40445 -9.931683,6.57621 -9.931683,12.59641 v 11.55841 c 0,7.24598 6.069036,6.99619 13.607394,6.99619 7.538359,0 13.606959,0.24979 13.606959,-6.99619 v -11.55841 c 0,-6.0202 -4.466529,-12.19191 -9.93125,-12.59641 -1.699299,-0.12578 -2.14983,3.41629 -3.675709,3.41629 -1.525881,0 -1.976401,-3.54206 -3.675711,-3.41629 z"
         style="fill:#38a47c;fill-opacity:1;stroke:#000000;stroke-width:0;stroke-linecap:round;stroke-linejoin:round"
         id="path3864-5"
         inkscape:export-xdpi="96"
         inkscape:export-ydpi="96" />
      <rect
         style="fill:#38a47c;fill-opacity:1;stroke:#000000;stroke-width:0;stroke-linecap:round;stroke-linejoin:round"
         id="rect3866-0"
         width="13.377046"
         height="17.493061"
         x="41.134968"
         y="215.18953"
         ry="7.6569963"
         inkscape:export-xdpi="96"
         inkscape:export-ydpi="96" />
      <path
         id="path3870-4"
         style="fill:#38a47c;fill-opacity:1;stroke:#000000;stroke-width:0;stroke-linecap:round;stroke-linejoin:round"
         d="m 142.23282,233.86065 c -5.46481,0.40445 -9.93168,6.57621 -9.93168,12.59641 v 11.55841 c 0,7.24598 6.06903,6.99619 13.60738,6.99619 7.53836,0 13.60697,0.24979 13.60697,-6.99619 v -11.55841 c 0,-6.0202 -4.46654,-12.19191 -9.93126,-12.59641 -1.69928,-0.12578 -2.14982,3.41629 -3.67571,3.41629 -1.52587,0 -1.97639,-3.54206 -3.6757,-3.41629 z"
         sodipodi:nodetypes="asssssasa"
         inkscape:export-xdpi="96"
         inkscape:export-ydpi="96" />
      <rect
         ry="7.6569963"
         y="215.18953"
         x="139.21979"
         height="17.493061"
         width="13.377046"
         id="rect3872-4"
         style="fill:#38a47c;fill-opacity:1;stroke:#000000;stroke-width:0;stroke-linecap:round;stroke-linejoin:round"
         inkscape:export-xdpi="96"
         inkscape:export-ydpi="96" />
      <path
         inkscape:export-ydpi="96"
         inkscape:export-xdpi="96"
         transform="scale(0.26458333)"
         d="M 153.85742,708.875 A 55.704732,39.464281 0 0 0 98.152344,748.33984 55.704732,39.464281 0 0 0 153.85742,787.80469 55.704732,39.464281 0 0 0 209.5625,748.33984 55.704732,39.464281 0 0 0 153.85742,708.875 Z m -32.14258,26.78711 h 63.21485 c 1.68179,0 3.03515,1.35334 3.03515,3.03516 0,1.68177 -1.35336,3.03515 -3.03515,3.03515 h -63.21485 c -1.68178,0 -3.03515,-1.35338 -3.03515,-3.03515 0,-1.68182 1.35337,-3.03516 3.03515,-3.03516 z m 0,18.92773 h 63.21485 c 1.68179,0 3.03515,1.35338 3.03515,3.03516 0,1.68181 -1.35336,3.03516 -3.03515,3.03516 h -63.21485 c -1.68178,0 -3.03515,-1.35335 -3.03515,-3.03516 0,-1.68178 1.35337,-3.03516 3.03515,-3.03516 z"
         style="fill:#38a47c;fill-opacity:1;stroke:#000000;stroke-width:0;stroke-linecap:round;stroke-linejoin:round"
         id="ellipse3926-5" />
      <path
         d="m 55.373512,71.437496 -7.78013,-14.784927 16.694187,0.654674 z"
         transform="matrix(-0.68963781,0.00326246,0.2378421,0.85819739,66.345716,153.44695)"
         inkscape:transform-center-y="1.9135232"
         inkscape:transform-center-x="1.2765396"
         inkscape:randomized="0"
         inkscape:rounded="-3.46945e-18"
         inkscape:flatsided="true"
         sodipodi:arg2="2.6571895"
         sodipodi:arg1="1.6099919"
         sodipodi:r2="4.8229008"
         sodipodi:r1="9.6458015"
         sodipodi:cy="61.799103"
         sodipodi:cx="55.751488"
         sodipodi:sides="3"
         id="path3928-0"
         style="fill:#38a47c;fill-opacity:1;stroke:#000000;stroke-width:0;stroke-linecap:round;stroke-linejoin:round"
         sodipodi:type="star"
         inkscape:export-xdpi="96"
         inkscape:export-ydpi="96" />
    </g>
  </g>
</svg>
