<?xml version="1.0" encoding="UTF-8" standalone="no"?>
<svg
   xmlns:dc="http://purl.org/dc/elements/1.1/"
   xmlns:cc="http://creativecommons.org/ns#"
   xmlns:rdf="http://www.w3.org/1999/02/22-rdf-syntax-ns#"
   xmlns:svg="http://www.w3.org/2000/svg"
   xmlns="http://www.w3.org/2000/svg"
   xmlns:sodipodi="http://sodipodi.sourceforge.net/DTD/sodipodi-0.dtd"
   xmlns:inkscape="http://www.inkscape.org/namespaces/inkscape"
   inkscape:export-ydpi="96"
   inkscape:export-xdpi="96"
   inkscape:export-filename="C:\Users\ifa\backend\placeholder\bau_dummy.png"
   sodipodi:docname="bau_dummy.svg"
   inkscape:version="1.0 (4035a4fb49, 2020-05-01)"
   id="svg8"
   version="1.1"
   viewBox="0 0 50.270833 50.270832"
   height="190"
   width="190">
  <defs
     id="defs2" />
  <sodipodi:namedview
     units="px"
     inkscape:window-maximized="1"
     inkscape:window-y="-8"
     inkscape:window-x="-8"
     inkscape:window-height="837"
     inkscape:window-width="1600"
     inkscape:snap-global="false"
     showgrid="false"
     inkscape:document-rotation="0"
     inkscape:current-layer="layer1"
     inkscape:document-units="mm"
     inkscape:cy="109.54579"
     inkscape:cx="96.930263"
     inkscape:zoom="1.4"
     inkscape:pageshadow="2"
     inkscape:pageopacity="0.0"
     borderopacity="1.0"
     bordercolor="#666666"
     pagecolor="#ffffff"
     id="base" />
  <metadata
     id="metadata5">
    <rdf:RDF>
      <cc:Work
         rdf:about="">
        <dc:format>image/svg+xml</dc:format>
        <dc:type
           rdf:resource="http://purl.org/dc/dcmitype/StillImage" />
        <dc:title></dc:title>
      </cc:Work>
    </rdf:RDF>
  </metadata>
  <g
     id="layer1"
     inkscape:groupmode="layer"
     inkscape:label="Layer 1"
     transform="translate(-36.992498,-110.7059)">
    <g
       transform="matrix(0.92863514,0,0,0.92863514,-662.77099,-281.7687)"
       style="fill:#79cc5e;fill-opacity:1"
       id="g974" />
    <g
       transform="matrix(0.4859575,0,0,0.4859575,19.015715,66.604131)"
       id="g860">
      <rect
         transform="matrix(0.92863514,0,0,0.92863514,-662.77099,-281.76871)"
         ry="0"
         y="486.56058"
         x="783.84918"
         height="4.2946692"
         width="33.141418"
         id="rect1446"
         style="fill:#51a735;fill-opacity:1;stroke:#000000;stroke-width:0;stroke-linecap:round;stroke-linejoin:round" />
      <rect
         transform="matrix(0.92863514,0,0,0.92863514,-662.77099,-281.76871)"
         y="422.63596"
         x="795.78137"
         height="65.378075"
         width="9.2771072"
         id="rect1448"
         style="fill:#51a735;fill-opacity:1;stroke:#000000;stroke-width:0;stroke-linecap:round;stroke-linejoin:round" />
      <path
         transform="matrix(0.92863514,0,0,0.92863514,-662.77099,-281.76871)"
         sodipodi:nodetypes="cccccc"
         d="m 780.81878,431.1497 10.88313,-4.3986 58.3998,2.74913 v 5.94732 h -69.28293 z"
         style="fill:#51a735;fill-opacity:1;stroke:#000000;stroke-width:0;stroke-linecap:round;stroke-linejoin:round"
         id="rect1450" />
      <rect
         transform="matrix(0.92863514,0,0,0.92863514,-662.77099,-281.76871)"
         y="434.15915"
         x="840.20715"
         height="20.221725"
         width="1.3514087"
         id="rect1452"
         style="fill:#51a735;fill-opacity:1;stroke:#000000;stroke-width:0;stroke-linecap:round;stroke-linejoin:round" />
      <rect
         transform="matrix(0.92863514,0,0,0.92863514,-662.77099,-281.76871)"
         y="453.81393"
         x="834.53284"
         height="10.205358"
         width="12.699999"
         id="rect1454"
         style="fill:#51a735;fill-opacity:1;stroke:#000000;stroke-width:0;stroke-linecap:round;stroke-linejoin:round" />
      <path
         id="rect851"
         style="fill:#51a735;fill-opacity:1;stroke:#ffffff;stroke-width:0;stroke-linecap:round;stroke-linejoin:round"
         d="m 119.98597,161.12122 c 3.22676,-2.15025 6.61736,-6.11049 10.39272,-5.22607 3.3999,0.79648 4.53416,5.35807 6.295,8.37356 1.56898,2.6869 2.98196,5.7615 3.74139,8.55173 0.17645,0.6483 -0.63568,1.42528 -1.42529,1.42528 h -28.50574 c -0.78961,0 -1.69952,-0.81191 -1.42529,-1.42528 1.03452,-2.31396 3.97736,-5.34248 6.29501,-7.72031 1.42075,-1.45763 2.93834,-2.85016 4.6322,-3.97891 z"
         sodipodi:nodetypes="aaassssaa" />
      <rect
         ry="1.0608436"
         y="168.95721"
         x="42.384426"
         height="5.0995154"
         width="3.8247488"
         id="rect912"
         style="fill:#51a735;fill-opacity:1;stroke:#ffffff;stroke-width:0;stroke-linecap:round;stroke-linejoin:round" />
      <path
         id="rect924"
         style="fill:#51a735;fill-opacity:1;stroke:#ffffff;stroke-width:0;stroke-linecap:round;stroke-linejoin:round"
         d="m 42.811294,143.21674 c -1.155887,0 -2.086384,1.01552 -2.086384,2.27702 v 2.00988 c 0.134823,-0.64436 0.660083,-1.12278 1.292512,-1.12278 h 18.627693 c 0.72756,0 1.313729,0.63267 1.325878,1.42343 h 0.0355 v -2.31053 c 0,-1.2615 -0.930495,-2.27702 -2.086382,-2.27702 z m 19.160766,6.90419 0.03641,13.26384 c 0.07533,-4.40841 0.0071,-8.84721 -0.002,-13.26384 z"
         sodipodi:nodetypes="sscssccssscccc" />
      <path
         id="rect883"
         style="fill:#51a735;fill-opacity:1;stroke:#ffffff;stroke-width:0;stroke-linecap:round;stroke-linejoin:round"
         d="m 42.811165,147.24729 c -1.155887,0 -2.086379,1.01551 -2.086379,2.27702 v 13.86816 h 21.281928 v -13.86816 c 0,-1.26151 -0.930781,-2.27702 -2.086668,-2.27702 z m 0.50936,2.66732 h 16.090451 c 0.248688,0 0.448838,0.21844 0.448838,0.48985 v 5.9607 c 0,0.27141 -0.20015,0.48985 -0.448838,0.48985 H 43.320525 c -0.248689,0 -0.449129,-0.21844 -0.449129,-0.48985 v -5.9607 c 0,-0.27141 0.20044,-0.48985 0.449129,-0.48985 z m 1.602211,9.0218 h 12.886029 l -2.254911,2.54817 h -8.376208 z m -4.19795,5.55396 v 3.09492 c 0,1.2615 0.930492,2.27702 2.086379,2.27702 h 17.108881 c 1.155887,0 2.086668,-1.01552 2.086668,-2.27702 v -3.09492 z m 18.354339,1.33082 a 1.442687,1.574511 0 0 1 0.01042,0 1.442687,1.574511 0 0 1 1.442946,1.57448 1.442687,1.574511 0 0 1 -1.442946,1.57447 1.442687,1.574511 0 0 1 -1.442656,-1.57447 1.442687,1.574511 0 0 1 1.432232,-1.57448 z m -15.524914,0.0534 a 1.3450643,1.4679681 0 0 1 0.0098,0 1.3450643,1.4679681 0 0 1 1.34507,1.46797 1.3450643,1.4679681 0 0 1 -1.34507,1.46798 1.3450643,1.4679681 0 0 1 -1.34507,-1.46798 1.3450643,1.4679681 0 0 1 1.335224,-1.46797 z m 4.175073,1.76094 h 7.272932 c 0.338019,0 0.610131,0.29697 0.610131,0.66588 0,0.3689 -0.272112,0.66588 -0.610131,0.66588 h -7.272932 c -0.338019,0 -0.610132,-0.29698 -0.610132,-0.66588 0,-0.36891 0.272113,-0.66588 0.610132,-0.66588 z" />
      <rect
         style="fill:#51a735;fill-opacity:1;stroke:#ffffff;stroke-width:0;stroke-linecap:round;stroke-linejoin:round"
         id="rect891"
         width="3.1239307"
         height="5.7533226"
         x="62.660366"
         y="150.61081"
         ry="1.196854" />
      <rect
         ry="1.196854"
         y="150.61081"
         x="36.9925"
         height="5.7533226"
         width="3.1239307"
         id="rect897"
         style="fill:#51a735;fill-opacity:1;stroke:#ffffff;stroke-width:0;stroke-linecap:round;stroke-linejoin:round" />
      <rect
         style="fill:#51a735;fill-opacity:1;stroke:#ffffff;stroke-width:0;stroke-linecap:round;stroke-linejoin:round"
         id="rect998"
         width="3.8247488"
         height="5.0995154"
         x="56.322918"
         y="168.95721"
         ry="1.0608436" />
    </g>
  </g>
</svg>
