{
	"Ausschusssitzung": {
		"filename": "ausschusssitzung.png",
		"mimetype": "image/png",
		"sha512checksum": "0ca50e02cb94d51e35ad361bb576229f6a77de1f254615f423476e132cfb5cecd1dbc78f1c0f40485a8d928935b3f63a36d8521480a5bd5e9e064ed8628c0cf8",
		"size": "11"
	},
	"Beteiligungsprojekt": {
		"filename": "beteiligungsprojekt.png",
		"mimetype": "image/png",
		"sha512checksum": "b3a8c7cef52e43570968cc0bfffe99e94487f570f63f168522d57db375ffc2ad23ffc2369703ea21e51ec0344cf71c9dfa3e6d0cb4a1c5bcfc7309ebb65e245f",
		"size": "12"
	},
	"Quartiersmanagement": {
		"filename": "quartiersmanagement.png",
		"mimetype": "image/png",
		"sha512checksum": "a0b6b72f468ec1eba6aca79b6685672ba1bf472abfc4e17ae4886077d3e19fbca6eedb785d2eb7e6d08e4eb390729b464955295b30872fa4aae0f7f79e2e470c",
		"size": "5"
	}
}
